*** Darwin 18x19 ***
Turn = 0.
  0123456789012345678
0 .f........rrr.f.t.r
1 .tr.r...h.ft.......
2 ..h.........frf..f.
3 ..h..r.......tf.thh
4 ..h....f....f..rh..
5 .h..r...h.....tr...
6 .ht....t..t.f...r..
7 .r...h.h.t...rr..t.
8 r.rr..........h...r
9 .tf......f.rhtr.r..
0 ....hth.r..h..htf..
1 ...hr........h.f...
2 .tth...t.fh.....rt.
3 ......tf....tf..h..
4 ...h.....t.f.h...hh
5 ..h..t..t...f......
6 .h.fr...th.h...t...
7 .rtf...............

Turn = 1.
  0123456789012345678
0 .f......hr.r.rf.tr.
1 .rrr......ft.......
2 .hh..r......rrf..f.
3 .............tf.t.h
4 .h.....f....f.r.hh.
5 .h.r..........t.r..
6 .tt....th.t.f..r...
7 r......h.t..r.r..tr
8 rrr..h.....r.r.....
9 .tt...h..f.htt.r.r.
0 ...hrt.r.....h.tf..
1 ...h..........ht...
2 .tth...t.fh....r.t.
3 ......tt....tf.....
4 .........t.f..h.hhh
5 .h.hrt..th..f......
6 ..tf....t.h....t...
7 .rtf...............

Turn = 2.
  0123456789012345678
0 .f......rr.r.r..rr.
1 .rrr.r....f.r.r....
2 r.h.........r.f..f.
3 ............rtf.t.h
4 h......f....fr..tt.
5 .hr...........t..r.
6 .tt....t..t.f.r....
7 r......tht.r.....tt
8 rrt...h....rr.r....
9 .tt.rh...f.htt..r.r
0 ..h..tr.....h..tf..
1 ...hh.........ht...
2 .tt....t.fh...r..t.
3 ......tt....tt.....
4 ....r....t.f...hhh.
5 h..t.t..tt..f...h..
6 ..tt....th.....t...
7 r.tf...............

Turn = 3.
  0123456789012345678
0 .frr.r..rr....r.rr.
1 ..h.......fr.rr....
2 rr.........r...r.f.
3 ............rtt.t.h
4 h......f....rr..tt.
5 .tr...........t...r
6 rtt....t..t.fr.....
7 ......ht.tr......tt
8 .rt.r...h..rt......
9 rrt..h...f.httr..rr
0 .h.h.tt....h...tt..
1 .....h........tt...
2 .tt....t.fh..r...t.
3 ....r.tt....tt.....
4 .........t.f...hhh.
5 h..t.t..tt..f......
6 ..tt....th.....th..
7 r.tf...............

Turn = 4.
  0123456789012345678
0 .frr.r.r.r.....rrr.
1 r.h.......fr.r.....
2 ..........r...r.rf.
3 .r..........rtt.t.h
4 h......f....r...tt.
5 rtr..........tt...r
6 .tt...ht..t.rr.....
7 ....r..t.ttr.....tt
8 .tt........ht......
9 r.th.h..hf..ttt..r.
0 rh...tt...h....tt.r
1 ......h.......tt...
2 .tt.r..t.fh.t....t.
3 ......tt....tt.....
4 .........t.f...hhh.
5 h..t.t..tt..f......
6 ..tt....tt.....tt..
7 r.tf...............

Turn = 5.
  0123456789012345678
0 rfr.rrr.r......rr.r
1 ..h.......rr.....r.
2 .........r...tr.t..
3 ...........r.tr.t.h
4 rr.....f...r....ttr
5 rtt...h......tt....
6 .tt.r..t..tr.t.....
7 .......t.ttr.....tt
8 .tth.......ht......
9 r.t..t...f..ttt....
0 h....tt.hh.....ttr.
1 r...r..h......tt..r
2 .tt....t.fh.t....t.
3 ......tt....tt.....
4 .........t.f...hhh.
5 h..t.t..tt..f......
6 ..tt....tt.....tt..
7 r.tt...............

Turn = 6.
  0123456789012345678
0 rfr.rr.r..r......rr
1 ..r..r....r....rr..
2 ........r....tr.t..
3 ..........r..t.rt.r
4 rr....hf..r.....ttr
5 rrr.r........tt....
6 .rr....t..tt.t.....
7 ...h...t.ttt.....tt
8 rtt........ht......
9 ..t..t...f..ttt....
0 h...rtt.h......ttt.
1 .......hh.....tt...
2 rtt....t.fh.t....tr
3 ......tt....tt.....
4 .........t.f...hhh.
5 h..t.t..tt..f......
6 r.tt....tt.....tt..
7 ..tt...............

Turn = 7.
  0123456789012345678
0 rfr.r.r...r......rr
1 .r..r....r......r..
2 .....r.r.....ttrr..
3 ......h..r...t.rr.t
4 rr..r..f.r......ttt
5 rrr..........tt....
6 .r.h...t..tt.t.....
7 rr.....t.ttt.....tt
8 .tt........tt......
9 ..t.rt...f..ttt....
0 h....tth.......ttt.
1 .......h......tt...
2 .tt....ttfh.t....tt
3 r.....tt....tt.....
4 .........t.f...hhh.
5 r..t.t..tt..f......
6 r.tt....tt.....tt..
7 ..tt...............

Turn = 8.
  0123456789012345678
0 .rrr.r...r......r.r
1 rr......r.......r..
2 ....r.r......ttrr..
3 ....rrh.r....t.rr.t
4 rr.....fr.......rtt
5 .rrh.........tt....
6 rr.....t..tt.t.....
7 rr.....t.ttt.....tt
8 ..t.r......tt......
9 .tt..t...f..ttt....
0 h....tth.......ttt.
1 ........h.....tt...
2 .tt....ttfh.t....tt
3 ......tt....tt.....
4 r........t.f...hhh.
5 r..t.t..tt..f......
6 r.tt....tt.....tt..
7 ..tt...............

Turn = 9.
  0123456789012345678
0 .rrrr...r......r..r
1 .r.....r........rr.
2 r...rrh......ttt...
3 .r..r..r.....t..r.t
4 ...h.r.rr......rrtt
5 rr...........tt....
6 rrr....t..tt.t.....
7 r...r..t.ttt.....tt
8 .tt........tt......
9 .tt..t...f..ttt....
0 h....ttt.......ttt.
1 .........h....tt...
2 .tt....ttth.t....tt
3 ......tt....tt.....
4 r........t.f...hhh.
5 r..t.t..tt..f......
6 .ttt....tt.....tt..
7 ..tt...............

Turn = 10.
  0123456789012345678
0 .rrr...r......r.rr.
1 r..r..r...........r
2 .r..rrh......ttt...
3 r..r..r......t.rr.t
4 .r.h...rr........tt
5 r....r.......ttr...
6 rr..r..t..tt.t.....
7 ..r....t.ttt.....tt
8 rtt........tt......
9 .tt..t...f..ttt....
0 h....ttt.......ttt.
1 ..........h...tt...
2 .tt....tttt.t....tt
3 ......tt....tt.....
4 .r.......t.f...hhh.
5 .r.t.t..tt..f......
6 .ttt....tt.....tt..
7 ..tt...............

*** Darwin 19x18 ***
Turn = 0.
  012345678901234567
0 r....f..tt.hrhfhht
1 hfr...hf.tfr.tfhh.
2 tfh..hrrr.t.fr.hf.
3 tftt....th.thr.r.r
4 .r.h.h.f.tf.ftrt.r
5 tf..t.hf.hff.ffrfr
6 .frtfrttrh...h.f.t
7 h.th.httt..rh..rr.
8 rf...hf.t.rhf.rrth
9 rf....hrr..rt.tthr
0 rtt..f.r.t.tftht..
1 .th.....f.tf.htthr
2 tt..rf.rfftf.fthhr
3 fttftr.hr.h.ttrrtr
4 .f..rfh.httrftfftt
5 .hf.frhft...fr..f.
6 hrr..fhfft..hfht.h
7 frrt..ft.rtf.f.f.r
8 thhh.ft..rthhf.fhr

Turn = 1.
  012345678901234567
0 .r...f..tth.rhfhtt
1 tfr...hf.tf.ttfhh.
2 tf.th...r.t.fr.hf.
3 tftt..rrr.hthr.r.r
4 .rh.h..f.tf.fttt.r
5 tr..t.hf.tff.fttfr
6 r.tttrttth..h..f..
7 r.r.r.ttt.r..h.rrr
8 rf.r..t.t.rrf.tttr
9 rf...hhrr.r.t.tthr
0 rrt..f..rt.tfttt..
1 .r......f.tt.ttthr
2 tth.rrr.fftt.tthrr
3 tttftt...rh.ttrrrr
4 .t.r.thhttrrftfftt
5 .rf.fttft...rr..f.
6 hrr..ftfft...f.th.
7 frrt..tt.rrrrfhfr.
8 ttht.ft.r.thhf.fhr

Turn = 2.
  012345678901234567
0 ..r..f..ttt.rrfttt
1 ttt...hf.tt.ttfhh.
2 tf.tt...r.t.f.rhf.
3 tftt...rr.htt.rrr.
4 .rhh..r.rtf.ttrt.r
5 t...t.tf.tffhfttf.
6 rrtttttttt.....frr
7 r.tr..tttr.r...r.r
8 rf....t.r.r.thtttt
9 rf.r.httrr..t.tttt
0 rtt..f..r.ttfttt..
1 r.......f.tt.tttrr
2 tth.rrr.ffrt.trhrr
3 tttftt...tr.ttrrtr
4 .tr..thhttr.ttfft.
5 .tf.fttft.rrr...fr
6 htrr.ttftt...f.th.
7 frht..tt.rrrrf.rrr
8 tt.t.ftr..ttrfhfh.

Turn = 3.
  012345678901234567
0 ...r.f..ttt.trfttt
1 ttt...hf.tt.ttfrh.
2 tf.tt....rt.f.rrf.
3 tttt.....rrtt.rrr.
4 rhh...rrrrr.tttt..
5 t...t.tt.tffhfttrr
6 t.tttttttt.r...rrr
7 rrtt..tttt.....t.r
8 rr....t.t...t.tttt
9 rr...httrrr.tttttt
0 rttr.f...rtttttt..
1 r.....r.f.rt.ttrrr
2 ttt.rr..fftt.trtrr
3 ttttr.r..tt.ttrtt.
4 .rr..tthtrr.ttfttr
5 .tr.ftttt.rr....f.
6 trr.rttfttr..f.thr
7 trht..tt..rrrf.rrr
8 tt.t.ttt.rtttttth.

Turn = 4.
  012345678901234567
0 ....rf..ttt.trtttt
1 ttt...hf.tt.trrrt.
2 tf.tt....rrrf.rrr.
3 tttt.....rr.t.trr.
4 rhh...rrrrr.tttr..
5 t...t.tr.ttrhftrrr
6 t.tttttttt.r...trr
7 rttt..tttt.....t.r
8 rr....t.t...t.tttt
9 rt...httrrr.tttttt
0 rtt..fr..rrttttt..
1 r..r....fr.t.ttrrr
2 rtt.r...fftt.tttrr
3 ttttrr.r.tt.ttttt.
4 .rt..tttrrr.ttttt.
5 .tr.tttttrr.....fr
6 rrr.rrrfttr..f.thr
7 ttht.r.t..rrrr.rrr
8 tt.t.ttt.rtttttth.

Turn = 5.
  012345678901234567
0 ....r.r.ttt.tttttt
1 ttt...hf.ttrttrrr.
2 tt.tt....rr.t.rrr.
3 rttt....rr.rt.trr.
4 rtt...rr.rr.tttr..
5 t...t.tr.tttttrtrr
6 t.tttttrrt.t...trr
7 rttt..tttt.....t.r
8 rr....t.t...t.tttt
9 rt...trtrrrrtttttt
0 rtt..fr..rr.ttttr.
1 r.......rr.t.ttr.r
2 rttr.r..fttt.ttttr
3 trtttr..rtt.ttttt.
4 .rt..rtrrrr.ttttt.
5 .tr.tttttrr.....tr
6 rrt.rr.fttr..f.thr
7 ttttr.rt..rttr.tt.
8 tt.t.tttr.tttrtthr

Turn = 6.
  012345678901234567
0 .....r.rtttrtttttt
1 ttt...hf.tt.tttrr.
2 tt.tt...rtt.rr.rr.
3 rttt....r.rrr.tr.r
4 ttt...rr.t..ttrr.r
5 t...t.trrttttt.tr.
6 t.tttttr.t.t..rt.r
7 rttt..tttt.....trt
8 rr....t.t..rt.tttt
9 r.t..trttrr.tttttt
0 rrt..tr..r.tttttt.
1 rr.....rr..t.ttrr.
2 .ttr..r.tttt.ttttt
3 trtrrr..rrt.ttttt.
4 .tt.r.trrrt.ttttt.
5 .rt.tttttrt.....rr
6 rrr.tt.tttr..f.thr
7 rrrrr.rr..rttr.tt.
8 tt.t.trrr.ttrrtttr

Turn = 7.
  012345678901234567
0 ......rrrrrrtttttt
1 ttt...hfrtr.tttrr.
2 rt.tt....trrr..tt.
3 tttt...r..rrr.tt.r
4 ttt...rrrt..ttrr.r
5 t...t.tr.ttttt.rr.
6 t.tttttt.t.t...t.r
7 rttt..tttt.r..rtrt
8 r.....t.t...t.tttt
9 rrt..ttttrr.tttttt
0 rrt..rr..t.tttttt.
1 r.r...rr...t.tttr.
2 .ttr...ttttt.ttttt
3 tttrr.rrrrt.ttttt.
4 .ttr..t.rrt.ttttt.
5 .rr.ttttrrt.....rr
6 rrr.tt.tttr..f.ttr
7 rrrrr.rrr.tttt.tt.
8 tt.t.trr..trrtttrr

Turn = 8.
  012345678901234567
0 ......rrrrrrtttttt
1 ttt...hfrtt.tttrr.
2 tt.tt....trrr..tt.
3 tttt..r.r.rrt.tt.r
4 ttt...rr.t..ttttr.
5 t...t.tr.ttttt.rr.
6 t.tttttt.t.r...t.r
7 tttt..tttt.r..rttt
8 t.....t.t...t.rttt
9 rrt..ttttrr.ttrttt
0 rtt.r.t..t.tttttt.
1 r..r.rr....t.tttt.
2 .ttt...rtttt.ttttt
3 tttrr.rrttt.ttttt.
4 .trr..t.rtr.ttttt.
5 .r.rtttttrt.....rr
6 rrrrtt.trtt..t.tt.
7 rrr.t.trr.tttt.ttt
8 r.rt.trr..trrtttrr

Turn = 9.
  012345678901234567
0 ......rrrrrrrttttt
1 ttt...r.rrr.rtttt.
2 tt.tt..rrtrrr..tt.
3 tttt.r....rrr.tt.r
4 ttt...rr.t..ttttr.
5 t...t.t.rttrtt.t..
6 t.tttttt.t.r...ttr
7 tttt..tttt.r..rttt
8 r.....t.t...t.rttt
9 rrr..tttttt.tttttt
0 rttr..t..t.tttttt.
1 r...rttr...t.tttt.
2 .tttr.rrtttt.ttttt
3 tttt....ttt.ttttt.
4 .tr.r.tr.tt.ttttt.
5 rrtr.tttrtt.....rr
6 .rrrtt.tttt..t.tt.
7 r.rrt.ttt.tttt.ttt
8 rrr..trr..rrttttrt

Turn = 10.
  012345678901234567
0 ......r.rrrrrttttt
1 ttt....rrr.rrtttt.
2 tt.tt.r.rttrr..tt.
3 ttttr..r.r.tt.tt..
4 ttt...r.rt..ttttrr
5 t...t.t.rtrrtt.t..
6 t.tttttt.t.r...rtr
7 tttt..ttttr...rrtt
8 r.r...t.t...t.rrtt
9 rr...tttttt.tttttt
0 rtrr..tr.t.tttttt.
1 r...r.rr...t.tttt.
2 .tttrrr.tttt.ttttt
3 ttttr...ttt.ttttt.
4 rrr...rt.rt.tttttr
5 .rt.trttttt.....t.
6 .rtrtr.tttt..t.tt.
7 r.rrt.ttt.tttt.ttt
8 rr.r.trr..tttttttt

*** Darwin 19x15 ***
Turn = 0.
  012345678901234
0 ........h.....h
1 rt.tr.h.h.r....
2 .......tt......
3 ..t..r.f.....th
4 .f..h......t...
5 r.rfh..........
6 ...t......r....
7 .......ff.t....
8 .r..r.........f
9 ..r....t.......
0 ..h........hh..
1 ...............
2 ......r.h.....t
3 ......r...t..r.
4 ....t..........
5 ...f..r.......h
6 .h.t.....hrr...
7 .....rrf...h...
8 ......fr....f..

Turn = 1.
  012345678901234
0 ........h.....h
1 rt.tth..hr.....
2 .......tt......
3 ..t....t.....tt
4 .f.h.r.....t...
5 .rrfh.....r....
6 ...t...........
7 ....r..ff.t....
8 r.............f
9 .rh....t.......
0 ..........h....
1 ............h..
2 .....r...h....t
3 ..........t.r..
4 ....t.r.......h
5 ...f.r...hr....
6 ..ht........r..
7 ....r.rr.......
8 ......f.r..hf..

Turn = 2.
  012345678901234
0 r.......h.....h
1 .t.tth..tr.....
2 .......tt......
3 ..t....t.....tt
4 .fh.......rt...
5 .r.fhr.........
6 ..rtr..........
7 .......ff.t....
8 r.h...........f
9 r......t.......
0 .........h.....
1 ...............
2 ....r.....h.h.t
3 ..........tr..h
4 ....t....hr....
5 ...fr.r........
6 ..ht.........r.
7 ...r..rr.......
8 ......f..r.hf..

Turn = 3.
  012345678901234
0 r.......h.....h
1 .t.ttt..tr.....
2 .......tt......
3 ..t....t..r..tt
4 .fh........t...
5 ...ft..........
6 .r.ttr.........
7 r.r....ff.t....
8 ..h...........f
9 r......t.......
0 ........h......
1 ...............
2 ...r.......h..t
3 .........hrrh.h
4 ....t.....r....
5 ...tr..........
6 ..ht..r.......r
7 ..r...r........
8 .....r.r..rhf..

Turn = 4.
  012345678901234
0 r.......h.....h
1 .t.ttt..tt.....
2 .......tt.r....
3 ..t....t.....tt
4 .tt........t...
5 ...tt..........
6 r..tt..........
7 .rr..r.ff.t....
8 r.r...........f
9 .......t.......
0 .......h.......
1 ...............
2 ..r......h..h.t
3 .........rr...t
4 ....t......rh..
5 ...tt..........
6 ..ht..r.......r
7 .r.............
8 ....r.rr..rrf..

Turn = 5.
  012345678901234
0 ........h.....h
1 rt.ttt..ttr....
2 .......tt......
3 ..t....t.....tt
4 .tt........t...
5 r..tt..........
6 ...tt..........
7 r.r....ff.t....
8 .r.r.r........f
9 .......t.......
0 ......h........
1 .........h.....
2 .r...........ht
3 ........rr....t
4 ....t......r...
5 ...tt.......r..
6 ..tt...r.......
7 r.............r
8 ...r..rr..rrr..

Turn = 6.
  012345678901234
0 ........t.....h
1 .t.ttt..ttt....
2 r......tt......
3 ..t....t.....tt
4 rtt........t...
5 ...tt..........
6 r..tt..........
7 ...r...ff.t....
8 ....r.........f
9 .r...r.t.......
0 .....h...h.....
1 ...............
2 r............ht
3 .......rr.....t
4 ....t.......r..
5 ...tt..........
6 ..tt....r...r..
7 r.........r.r..
8 ..r...rr...r..r

Turn = 7.
  012345678901234
0 ........t.....h
1 .t.ttt..ttt....
2 .......tt......
3 r.t....t.....tt
4 rtt........t...
5 r..tt..........
6 ...tt..........
7 ...t...ff.t....
8 .....r........f
9 .....r.t.h.....
0 .r..r..........
1 ...............
2 r............ht
3 ......rr......t
4 ....t........r.
5 ...tt..........
6 ..tt.....rr.r..
7 ...........rr..
8 rr....rr......r

Turn = 8.
  012345678901234
0 ........t.....h
1 .t.ttt..ttt....
2 .......tt......
3 r.t....t.....tt
4 rtt........t...
5 r..tt..........
6 ...tt..........
7 ...t...ff.t....
8 ......r..h....f
9 .......t.......
0 ...r.r.........
1 .r.............
2 .............tt
3 r....rr.......t
4 ....t.........r
5 ...tt.....r....
6 ..tt.....r.r...
7 .......r...r.r.
8 rr...r........r

Turn = 9.
  012345678901234
0 ........t.....h
1 .t.ttt..ttt....
2 .......tt......
3 .rt....t.....tt
4 rtt........t...
5 r..tt..........
6 ...tt..........
7 ...t...ffht....
8 .......t......f
9 .......t.......
0 ..r............
1 .....r.........
2 .r...........tt
3 ....rr........t
4 r...t.....r...r
5 ...tt..........
6 ..tt...r..r....
7 .........r..r.r
8 rr..r.........r

Turn = 10.
  012345678901234
0 ........t.....h
1 .t.ttt..ttt....
2 .......tt......
3 .r.r...t.....tt
4 rrt........t...
5 r..tt..........
6 ...tt....h.....
7 ...t...ff.t....
8 .......t......f
9 .......t.......
0 .r.............
1 ...............
2 .....r.......tt
3 .r.rr.....r...t
4 ....t.........t
5 r..tt..r.......
6 ..tt.....r.....
7 r............rr
8 r..r.....r...r.

*** Darwin 15x15 ***
Turn = 0.
  012345678901234
0 .........rh....
1 .......f.......
2 .....f.r.......
3 .....t.........
4 ...............
5 .............f.
6 ...............
7 ...............
8 ............h..
9 ...............
0 ..t............
1 r..............
2 r..............
3 .............th
4 ....h..........

Turn = 1.
  012345678901234
0 .........rr....
1 .......f.......
2 .....f.........
3 .....t.r.......
4 ...............
5 .............f.
6 ...............
7 ...............
8 .............h.
9 ...............
0 ..t............
1 r..............
2 ...............
3 r............th
4 ....h..........

Turn = 2.
  012345678901234
0 .........rr....
1 .......f.......
2 .....f.........
3 .....t.........
4 .......r.......
5 .............f.
6 ...............
7 ...............
8 ..............h
9 ...............
0 ..t............
1 .r.............
2 ...............
3 .............tt
4 r...h..........

Turn = 3.
  012345678901234
0 ...........r...
1 .......f.r.....
2 .....f.........
3 .....t.........
4 ...............
5 .......r.....f.
6 ...............
7 ...............
8 ..............h
9 ...............
0 ..t............
1 ..r............
2 ...............
3 .............tt
4 r...h..........

Turn = 4.
  012345678901234
0 ............r..
1 .......f.......
2 .....t...r.....
3 .....t.........
4 ...............
5 .............f.
6 .......r.......
7 ...............
8 ..............h
9 ...............
0 ..t............
1 ...r...........
2 ...............
3 .............tt
4 r...h..........

Turn = 5.
  012345678901234
0 .............r.
1 .......f.......
2 .....t.........
3 .....t...r.....
4 ...............
5 .............f.
6 ...............
7 .......r.......
8 ..............h
9 ...............
0 ..t............
1 ....r..........
2 ...............
3 r............tt
4 ....h..........

Turn = 6.
  012345678901234
0 ..............r
1 .......f.......
2 .....t.........
3 .....t.........
4 .........r.....
5 .............f.
6 ...............
7 ...............
8 .......r......h
9 ...............
0 ..t............
1 .....r.........
2 r..............
3 .............tt
4 ....h..........

Turn = 7.
  012345678901234
0 ..............r
1 .......f.......
2 .....t.........
3 .....t.........
4 ...............
5 .........r...f.
6 ...............
7 ...............
8 ..............h
9 .......r.......
0 ..t............
1 r.....r........
2 ...............
3 .............tt
4 ....h..........

Turn = 8.
  012345678901234
0 ..............r
1 .......f.......
2 .....t.........
3 .....t.........
4 ...............
5 .............f.
6 .........r.....
7 ...............
8 ..............h
9 ...............
0 r.t....r.......
1 .......r.......
2 ...............
3 .............tt
4 ....h..........

Turn = 9.
  012345678901234
0 .............r.
1 .......f.......
2 .....t.........
3 .....t.........
4 ...............
5 .............f.
6 ...............
7 .........r.....
8 ..............h
9 r..............
0 ..t....r.......
1 ........r......
2 ...............
3 .............tt
4 ....h..........

Turn = 10.
  012345678901234
0 ............r..
1 .......f.......
2 .....t.........
3 .....t.........
4 ...............
5 .............f.
6 ...............
7 ...............
8 r........r....h
9 ...............
0 ..t...r........
1 .........r.....
2 ...............
3 .............tt
4 ....h..........

*** Darwin 18x14 ***
Turn = 0.
  01234567890123
0 fhtfhfhhthh.hh
1 ..fthhtrhhh.r.
2 .rthrtf..hrr.h
3 rftt.hrf.fhffr
4 rh.t.fhr.hhfh.
5 htfhttfftf..rf
6 f..rrrfthr.h.r
7 hht..tfrrrrrhr
8 fhhrrfrrtrrrt.
9 rhf.rhhtthhrht
0 rrrhfrhftf.hfh
1 tfhrh.hhttttth
2 .trhhf.fthh.tr
3 tttrtrrfrr.t.h
4 rhrrh.hhfh.rhf
5 rf.htrhhhtthht
6 f.hrf.rr..fr.h
7 r.hrt..rr.h.hr

Turn = 1.
  01234567890123
0 fttfhfhtthhh..
1 .rtthtth.hrr.h
2 ..trrttr.hr.rr
3 rftth.tf.fhffr
4 rh.t.tt.thhfh.
5 rtttrttttf.r.f
6 r.r.rrttrr.h.r
7 hht..ttrrrrrrr
8 rhtrrfrrtrrtr.
9 rrtrh.ttrttrrt
0 trthrrrrtf.hft
1 tttthhhhtttttt
2 .rth.f.tth.htt
3 ttrtt.rrrr.t.t
4 rtrrhrhhfh.rrf
5 rfh.tthhhtthtt
6 f.rrt.r.r.tt.h
7 .rhrt..rr.h.hr

Turn = 2.
  01234567890123
0 trtfhfhtthhh..
1 .rtrttth.hrr.h
2 ..trrttr.hr.rr
3 rttth.rr.ftffr
4 rh.t.tt.tttfh.
5 rtttrtrttfrh.f
6 rr..rrtrrrr.r.
7 hhtr.trrrr.rrr
8 rhtr.frrtrrtr.
9 rtrrh.ttrttrtt
0 ttthrrrrtf.hft
1 trtthhhhtttttt
2 .trt.f.trt.htt
3 ttrtt.rrrr.t.t
4 rtr.hrhrft.ttf
5 rfhrttrhhttttt
6 f.rrt.r..rtt.r
7 .rrrt..rr.h.hr

Turn = 3.
  01234567890123
0 rrtfhfttthhr..
1 .rtrtttt.hrr.h
2 ..trtttt.h.rrr
3 ttttt.rr.ftfrr
4 rt.t.tt.tttrr.
5 rttrrtrttrrh.f
6 rr..rtrrrrrr.r
7 rhtt.trrrr.rr.
8 rhtt.frrrtrrr.
9 ttrrrrrrrttttt
0 ttttr.rrtr.ttt
1 trtthhhhtttttt
2 .rtt.frtrt.htt
3 ttttt..trr.t.t
4 rrr.ttttf.rttf
5 tthrttrhhtrttt
6 f.rrt.r..rrt.r
7 .rrtt..rr.h.hr

Turn = 4.
  01234567890123
0 rrtthfttttrr..
1 r.tttttt.h.r.h
2 ..tttttt.hrrrr
3 ttttt.r..ttfrr
4 rt.t.ttrtttrr.
5 rtttrttrrrrr.r
6 rr..rttrrrrr.r
7 rrrr.rrrtr.rr.
8 rhrt.rrrttrrr.
9 ttrrrrrrrrrrrt
0 tttttr.rtr.rrt
1 ttttthrhtttttt
2 r.tt.frtrr.ttt
3 ttttt..tr..r.t
4 trr.ttttfrrrtt
5 rrrrttthttrttt
6 fr.rr.tr.rrt.r
7 .rttt...r.h.hr

Turn = 5.
  01234567890123
0 r.tthfttttrr..
1 rrtttttt.hr..h
2 ..tttttt.hrrrr
3 ttttt..r.ttrrr
4 tt.t.ttttttrr.
5 rrtttttrrrrrrr
6 rr.rtttrrrr..r
7 rrr.rrr.rr.rr.
8 rrrt.rrrrtrrr.
9 tttrrrrrrrtttt
0 tttttr.rrt.ttt
1 ttttthrrrttttt
2 r.tt.frttt.rtt
3 ttttt..tt..r.t
4 trr.tttttrrrtt
5 rrrttttrrrrttt
6 rr.rr.tr..tt.r
7 r.ttr...rrh.hr

Turn = 6.
  01234567890123
0 .rtttttttttt..
1 ..tttttt.rr.rh
2 rrtttttt.hrr.r
3 ttttt...rttrr.
4 tt.t.ttttrtrrr
5 rrtrttrrrtrrrr
6 r.rtttrrrrr.rr
7 rrrrr.t.rr.r..
8 trrtr.rrrrrrr.
9 ttttrrrrrrrttt
0 tttttrrrr.rrrt
1 rtttth.rrttrtt
2 r.tt.frrtr.rtt
3 ttttt..tt.rr.t
4 trr.tttttrr.tt
5 rrrrtttrrrtttt
6 tt.rr.trr.tt.t
7 r.tt.r...rh.ht

Turn = 7.
  01234567890123
0 .rttttttttttr.
1 ..tttttt.rr..r
2 rrtttttt.rrrrr
3 rtttt...rrr.rr
4 tt.r.ttttttrrr
5 rrtrttttttrrrr
6 .rrtttrrrrr...
7 rrrrr.r.rrrrrr
8 trrrr.rrr.rr..
9 ttttrrrrrrrtrt
0 ttttttrr.rrttt
1 rtttt.hrtttrtt
2 t.tt.frtt.rrtt
3 ttttt..ttrr..t
4 ttt.ttttrrr.tt
5 rtrrttttrrtttt
6 rt.tt.ttr.tt.t
7 r.tt..r..rr.tt

Turn = 8.
  01234567890123
0 .rrtttttttrtt.
1 ..tttttt.rrr.r
2 rrttttttrrr.rr
3 rtttt....rr.rr
4 ttrr.ttttttrrr
5 ttt.ttttrrrrrr
6 .trtrtr.rrt.r.
7 rrrrrr.rrrrr..
8 trrrr.rrrrr..r
9 ttttrrrrrrrttt
0 rtttttrr.rrttt
1 rtttt.rtrtrrtt
2 t.tt.frtt.rrtt
3 ttttt..ttrr..t
4 ttt.ttttrrr.tt
5 rtrrttttrrrttt
6 rt.tt.trr.tt.t
7 r.tt...r.r.rtt

Turn = 9.
  01234567890123
0 .rtttttttrrrt.
1 ..rtttttr.rrrr
2 rrttttttrrr.rr
3 rttrt....r.rr.
4 trrr.tttrttrrr
5 ttt.ttttrrrrrr
6 .trtrtt.rrt.r.
7 rrttrr.rrrrr..
8 trrrrrrrrr...r
9 rttrrrtrrrrrtr
0 rtttrtrr.rrrtt
1 ttttt.rtrtrrtt
2 t.tt.frtt.rttt
3 ttttt..ttrr..t
4 ttt.ttttttr.tr
5 rtrrttttttrtrt
6 rt.tt.trr.tt.t
7 .ttt....r.rrrr

Turn = 10.
  01234567890123
0 .rtttttttr.rtr
1 ..tttttrrtrrtr
2 rrtttttttr.rr.
3 rtrrt...rtrr..
4 rrrr.ttt.ttrrr
5 ttt.tttttrttrr
6 .ttttrt.rrr..r
7 rrtrrr.rrrr...
8 rrrrrrrrrr.r.r
9 rttrrrrr.rrrtt
0 rttrrrrrrrrttt
1 tttrt.rrrtrrtt
2 t.tt.frrtrr.tt
3 ttttt..ttr.r.t
4 ttt.tttttt.rtt
5 rtttttttrttttt
6 tt.tt.trr.tt.t
7 .ttt.....rrrrr

*** Darwin 13x10 ***
Turn = 0.
  0123456789
0 .....ht...
1 ...t......
2 r.t.......
3 ..f.t...rf
4 ....h.....
5 ..........
6 ht..h.....
7 ...r.t....
8 t....t....
9 ..tt.ht...
0 t...r...f.
1 ..........
2 ..........

Turn = 1.
  0123456789
0 ......t...
1 r..t.h....
2 ..t.......
3 ..f.t....f
4 ........r.
5 ....h.....
6 ht...h....
7 .....t....
8 t..r.t....
9 ..ttrht...
0 t.......f.
1 ..........
2 ..........

Turn = 2.
  0123456789
0 r.....t...
1 ...t......
2 ..t..h....
3 ..f.t....f
4 ..........
5 ........r.
6 tt..h.h...
7 .....t....
8 t..r.t....
9 ..ttttt...
0 t.......f.
1 ..........
2 ..........

Turn = 3.
  0123456789
0 r.....t...
1 ...t......
2 ..t.......
3 ..t.th...f
4 ..........
5 ..........
6 tt.....hr.
7 ....tt....
8 t..r.t....
9 ..ttttt...
0 t.......f.
1 ..........
2 ..........

Turn = 4.
  0123456789
0 .r....t...
1 ...t......
2 ..t.......
3 ..t.tt...f
4 ..........
5 ..........
6 tt.....h..
7 ....tt..r.
8 t..t.t....
9 ..ttttt...
0 t.......f.
1 ..........
2 ..........

Turn = 5.
  0123456789
0 ..r...t...
1 ...t......
2 ..t.......
3 ..t.tt...f
4 ..........
5 ..........
6 tt......h.
7 ....tt....
8 t..t.t..r.
9 ..ttttt...
0 t.......f.
1 ..........
2 ..........

Turn = 6.
  0123456789
0 ...r..t...
1 ...t......
2 ..t.......
3 ..t.tt...f
4 ..........
5 ..........
6 tt.......h
7 ....tt....
8 t..t.t....
9 ..ttttt.r.
0 t.......f.
1 ..........
2 ..........

Turn = 7.
  0123456789
0 ....r.t...
1 ...t......
2 ..t.......
3 ..t.tt...f
4 ..........
5 ..........
6 tt.......h
7 ....tt....
8 t..t.t....
9 ..ttttt.r.
0 t......r..
1 ..........
2 ..........

Turn = 8.
  0123456789
0 .....rt...
1 ...t......
2 ..t.......
3 ..t.tt...f
4 ..........
5 ..........
6 tt.......h
7 ....tt....
8 t..t.t....
9 ..ttttt...
0 t.....r.r.
1 ..........
2 ..........

Turn = 9.
  0123456789
0 .....r.r..
1 ...t......
2 ..t.......
3 ..t.tt...f
4 ..........
5 ..........
6 tt.......h
7 ....tt....
8 t..t.t....
9 ..ttttt...
0 t.....t...
1 ........r.
2 ..........

Turn = 10.
  0123456789
0 ......r.r.
1 ...t......
2 ..t.......
3 ..t.tt...f
4 ..........
5 ..........
6 tt.......h
7 ....tt....
8 t..t.t....
9 ..ttttt...
0 t.....t...
1 ..........
2 ........r.

*** Darwin 10x17 ***
Turn = 0.
  01234567890123456
0 .tt.t.rrthff.hhth
1 ..t.th.ft..tfr.tt
2 h.rrttrr.t.fh.r..
3 f.hrr.fhfhhh.hhrt
4 fttrhr..rrf..rrhr
5 thh.hh.t...t.hth.
6 rhhrf..trf.frft.h
7 .h.tr....rr...rh.
8 .th.hhh.hthhrffr.
9 rrf.tftfhhrth.rtt

Turn = 1.
  01234567890123456
0 .tt.tr.rt.ff.hhtt
1 ..t.tr.ftt.trrrtt
2 .rrrrrrr.t.thh...
3 f.hrt.fhfhh.hrrrt
4 fttttr....f..hrtt
5 tthr..rtrr.t..th.
6 rthtr..rrfrf.tth.
7 .t.tr....rh.rr.h.
8 .t.hhhh.rrrhrrfr.
9 rrf.tttthh.ttr.rr

Turn = 2.
  01234567890123456
0 .tt.rt.r.rff.hrtt
1 ..t.tr.rtt.trrrtt
2 .rrrrrrr.t.thr...
3 f.hrt.rrf..hhrrrt
4 ttttt....hf..hrtt
5 rtrt.rrrrrrt..rr.
6 rthtr.rrr.hf.tth.
7 .t.tr....rr.rr.h.
8 rr.hhhh.rr.htrfrr
9 .rf.tttth.htrr.r.

Turn = 3.
  01234567890123456
0 .tt.tr.rtr.f.rrtt
1 .rr.rr.rtttttrrtt
2 ..rrrrr..t.tht...
3 f.htt.rrf..tttrrt
4 rtttt..r.hr..hrtt
5 rttt..rr..rt..rr.
6 rtttrrrrrrrt.tth.
7 rt.t.r..rrr.rr.hr
8 .r.htht.t..ttrrr.
9 .rf.ttttt.htrr.r.

Turn = 4.
  01234567890123456
0 .rt.tr.rtt.f.rttt
1 .rr.tr.rttttrrrrt
2 ..rrtrrr.t.ttt...
3 f.htt..rf..tttrrt
4 rtttt.r...rr.hrrr
5 rtttr.rrrhrt..rr.
6 rr.t.rr..rrt.tttr
7 rtrt..rrrr..r.rh.
8 .t.tttt.t..trrrr.
9 r.f.ttttt.htrrr..

Turn = 5.
  01234567890123456
0 rrt.tr.rrt.t.rtrt
1 ..trtrrrttttrrrtt
2 .r..t..r.t.ttt...
3 f.ttt.rrf.rttrrtt
4 rrttt.r.r.r.rrrr.
5 rrttt.r..hrt..rrr
6 r.rt.rrr.r.t.ttrr
7 rt.t..r.rr...rrr.
8 .trtttttr..trrrr.
9 r.f.ttttt.ttrrr..

Turn = 6.
  01234567890123456
0 rrtrtr.rr.tt.rrrt
1 ..t.trrrttttrrrtt
2 r...t..r.trttr...
3 frttt.rrr.rttrrrt
4 r.ttt.rrr.r.rrrr.
5 rrtttrr..r.t..rrr
6 r.r.r....r.t.ttrr
7 rt.t..rrr....rrr.
8 .tttttrtrr.trrrr.
9 r..rttrtt.ttttr..

Turn = 7.
  01234567890123456
0 r.tttt.r.rtt.rrrt
1 r.t.ttrrttrtrrrtt
2 rr..t.rr.trtttrr.
3 f.tttrr.r.rtrrrrt
4 r.tttrrrr.r.tr...
5 r.ttt....r.t..rrr
6 rt.tt....r.t.ttr.
7 rt.t..rrr....rrrr
8 .tttttrrr..trrrr.
9 .r.rrrtttttttt.r.

Turn = 8.
  01234567890123456
0 r.ttttrr.rrt.rrrt
1 rrt.trrrtrttrrrrt
2 r...t.r..tttttrr.
3 f.tttrr..rrrttrrt
4 .rtttrrr...rr....
5 r.ttt..rr..t.rrr.
6 rt.tt.....tt.ttrr
7 .t.t.r.rr....rrr.
8 rttttttrr..tttr.r
9 ..rtttttttttttt.r

Turn = 9.
  01234567890123456
0 rrtttttr.rr.rrrtt
1 r.t.trrrtttttrrrr
2 .r..tr...ttrtrrrr
3 f.tttt.r.rrrrrrr.
4 rrrrttrr...r.....
5 ..ttt..r...ttrr.r
6 rt.tt..r..tt.rrr.
7 .t.tr.rr.....rrrr
8 .tttrttrr..ttrr.r
9 r.rrrtttrtttttt.r

Turn = 10.
  01234567890123456
0 rtttttt.rt.rrrrrr
1 r.t.ttrrtttrttrrr
2 ..r.tt...trrttrrr
3 r.trttrrr.rr.tr.r
4 rrrrtt...r.rr....
5 ..ttt.r....ttrr.r
6 .t.tt..r..tt.rrr.
7 rt.ttrr.....t.rrr
8 .tttrtttr..tttrrr
9 r.rrrtttttttttt..

